artifacts/manual/openfpga-la-0x00000042-1784268893553.vcd
$date
  2026-07-17T06:14:53.553Z
$end
$version
  OpenFPGA Web Viewer Logic Analyzer
$end
$timescale 1ns $end
$scope module openfpga_la $end
$var wire 1 a uart_tx_busy $end
$var wire 1 b uart_rx_valid $end
$var wire 1 c debug_tx_valid $end
$var wire 1 d debug_tx_ready $end
$var wire 1 e trace_valid $end
$var wire 1 f monitor_resp_valid $end
$var wire 1 g profiler_snapshot_valid $end
$var wire 1 h demo_frame_tick $end
$var wire 8 i debug_buffer_used_lsb $end
$var wire 8 j demo_fifo_level_lsb $end
$var wire 8 k la_state_debug $end
$var wire 1 ~ trigger_marker $end
$upscope $end
$enddefinitions $end
#0
0~
#0
1a
0b
0c
0d
0e
0f
0g
0h
b00000000 i
b01111000 j
b00000010 k
1~
#1
1a
0b
0c
0d
0e
0f
0g
0h
b00000000 i
b01111000 j
b00000010 k
0~
#2
1a
0b
0c
0d
0e
0f
0g
0h
b00000000 i
b01111000 j
b00000010 k
#3
0a
0b
1c
0d
0e
0f
0g
0h
b00000000 i
b01111000 j
b00000010 k
#4
0a
0b
1c
0d
0e
0f
0g
0h
b00000000 i
b01111000 j
b00000010 k
#5
0a
0b
1c
0d
0e
0f
0g
0h
b00000000 i
b01111000 j
b00000010 k
#6
0a
0b
1c
0d
0e
0f
0g
0h
b00000000 i
b01111000 j
b00000010 k
#7
0a
0b
1c
0d
0e
0f
0g
0h
b00000000 i
b01111000 j
b00000010 k
#8
0a
0b
1c
0d
0e
0f
0g
0h
b00000000 i
b01111000 j
b00000010 k
#9
0a
0b
1c
0d
0e
0f
0g
0h
b00000000 i
b01111000 j
b00000010 k
#10
0a
0b
1c
0d
0e
0f
0g
0h
b00000000 i
b01111000 j
b00000010 k
#11
0a
0b
1c
0d
0e
0f
0g
0h
b00000000 i
b01111000 j
b00000010 k
#12
0a
0b
1c
0d
0e
0f
0g
0h
b00000000 i
b01111000 j
b00000010 k
#13
0a
0b
1c
0d
0e
0f
0g
0h
b00000000 i
b01111000 j
b00000010 k
#14
0a
0b
1c
0d
0e
0f
0g
0h
b00000000 i
b01111000 j
b00000010 k
#15
0a
0b
1c
0d
0e
0f
0g
0h
b00000000 i
b01111000 j
b00000010 k
#16
0a
0b
1c
0d
0e
0f
0g
0h
b00000000 i
b01111000 j
b00000010 k
#17
0a
0b
1c
0d
0e
0f
0g
0h
b00000000 i
b01111000 j
b00000010 k
#18
0a
0b
1c
0d
0e
0f
0g
0h
b00000000 i
b01111000 j
b00000010 k
#19
0a
0b
1c
0d
0e
0f
0g
0h
b00000000 i
b01111000 j
b00000010 k
#20
0a
0b
1c
0d
0e
0f
0g
0h
b00000000 i
b01111000 j
b00000010 k
#21
0a
0b
1c
0d
0e
0f
0g
0h
b00000000 i
b01111000 j
b00000010 k
#22
0a
0b
1c
0d
0e
0f
0g
0h
b00000000 i
b01111000 j
b00000010 k
#23
0a
0b
1c
0d
0e
0f
0g
0h
b00000000 i
b01111000 j
b00000010 k
#24
0a
0b
1c
0d
0e
0f
0g
0h
b00000000 i
b01111000 j
b00000010 k
#25
0a
0b
1c
0d
0e
0f
0g
0h
b00000000 i
b01111000 j
b00000010 k
#26
0a
0b
1c
0d
0e
0f
0g
0h
b00000000 i
b01111000 j
b00000010 k
#27
0a
0b
1c
0d
0e
0f
0g
0h
b00000000 i
b01111000 j
b00000010 k
#28
0a
0b
1c
0d
0e
0f
0g
0h
b00000000 i
b01111000 j
b00000010 k
#29
0a
0b
1c
0d
0e
0f
0g
0h
b00000000 i
b01111000 j
b00000010 k
#30
0a
0b
1c
0d
0e
0f
0g
0h
b00000000 i
b01111000 j
b00000010 k
#31
0a
0b
1c
0d
0e
0f
0g
0h
b00000000 i
b01111000 j
b00000010 k
#32
0a
0b
1c
0d
0e
0f
0g
0h
b00000000 i
b01111000 j
b00000010 k
#33
0a
0b
1c
0d
0e
0f
0g
0h
b00000000 i
b01111000 j
b00000010 k
#34
0a
0b
1c
0d
0e
0f
0g
0h
b00000000 i
b01111000 j
b00000010 k
#35
0a
0b
1c
0d
0e
0f
0g
0h
b00000000 i
b01111000 j
b00000010 k
#36
0a
0b
1c
0d
0e
0f
0g
0h
b00000000 i
b01111000 j
b00000010 k
#37
0a
0b
1c
0d
0e
0f
0g
0h
b00000000 i
b01111000 j
b00000010 k
#38
0a
0b
1c
0d
0e
0f
0g
0h
b00000000 i
b01111000 j
b00000010 k
#39
0a
0b
1c
0d
0e
0f
0g
0h
b00000000 i
b01111000 j
b00000010 k
#40
0a
0b
1c
0d
0e
0f
0g
0h
b00000000 i
b01111000 j
b00000010 k
#41
0a
0b
1c
0d
0e
0f
0g
0h
b00000000 i
b01111000 j
b00000010 k
#42
0a
0b
1c
0d
0e
0f
0g
0h
b00000000 i
b01111000 j
b00000010 k
#43
0a
0b
1c
0d
0e
0f
0g
0h
b00000000 i
b01111000 j
b00000010 k
#44
0a
0b
1c
0d
0e
0f
0g
0h
b00000000 i
b01111000 j
b00000010 k
#45
0a
0b
1c
0d
0e
0f
0g
0h
b00000000 i
b01111000 j
b00000010 k
#46
0a
0b
1c
0d
0e
0f
0g
0h
b00000000 i
b01111000 j
b00000010 k
#47
0a
0b
1c
0d
0e
0f
0g
0h
b00000000 i
b01111000 j
b00000010 k
#48
0a
0b
1c
0d
0e
0f
0g
0h
b00000000 i
b01111000 j
b00000010 k
#49
0a
0b
1c
0d
0e
0f
0g
0h
b00000000 i
b01111000 j
b00000010 k
#50
0a
0b
1c
0d
0e
0f
0g
0h
b00000000 i
b01111000 j
b00000010 k
#51
0a
0b
1c
0d
0e
0f
0g
0h
b00000000 i
b01111000 j
b00000010 k
#52
0a
0b
1c
0d
0e
0f
0g
0h
b00000000 i
b01111000 j
b00000010 k
#53
0a
0b
1c
0d
0e
0f
0g
0h
b00000000 i
b01111000 j
b00000010 k
#54
0a
0b
1c
0d
0e
0f
0g
0h
b00000000 i
b01111000 j
b00000010 k
#55
0a
0b
1c
0d
0e
0f
0g
0h
b00000000 i
b01111000 j
b00000010 k
#56
0a
0b
1c
0d
0e
0f
0g
0h
b00000000 i
b01111000 j
b00000010 k
#57
0a
0b
1c
0d
0e
0f
0g
0h
b00000000 i
b01111000 j
b00000010 k
#58
0a
0b
1c
0d
0e
0f
0g
0h
b00000000 i
b01111000 j
b00000010 k
#59
0a
0b
1c
0d
0e
0f
0g
0h
b00000000 i
b01111000 j
b00000010 k
#60
0a
0b
1c
0d
0e
0f
0g
0h
b00000000 i
b01111000 j
b00000010 k
#61
0a
0b
1c
0d
0e
0f
0g
0h
b00000000 i
b01111000 j
b00000010 k
#62
0a
0b
1c
0d
0e
0f
0g
0h
b00000000 i
b01111000 j
b00000010 k
#63
0a
0b
1c
0d
0e
0f
0g
0h
b00000000 i
b01111000 j
b00000010 k
